[Event "IC"]
[Site "Brasschaat"]
[Date "2016.12.04"]
[Round "5"]
[White "Ruben De Smet"]
[Black "Xiaoyun Yao"]
[Result "1-0"]
[ECO "D31"]
[Time "19:23:00"]
[PlyCount "91"]

1. d4 {[%eval 0.11/19]} d5 {[%eval 0.09/20]} 2. c4 {[%eval 0.19/18]} e6 {[%eval
0.17/18]} 3. Nc3 {[%eval 0.21/19]} dxc4 {[%eval 0.42/20]} 4. e3 {[%eval
0.08/22]} Nf6 {[%eval 0.07/20]} 5. Bxc4 {[%eval 0.01/21]} Bd6 {[%eval 0.82/21]}
6. Nge2 {[%eval 0.08/20]} Nc6 {[%eval 0.51/20]} 7. f3 {[%eval 0.22/21]} e5
{[%eval 0.25/24]} 8. Bb5 {[%eval -0.13/22]} Bd7 {[%eval 0.29/22]} 9. Bxc6
{[%eval -0.12/19]} Bxc6 {[%eval 0.01/21]} 10. O-O {[%eval -0.15/16]} e4 {[%eval
-0.13/21]} 11. fxe4 {[%eval -0.23/21]} Nxe4 {[%eval -0.25/24]} 12. Nxe4 {[%eval
-0.47/19]} Bxe4 {[%eval -0.60/24]} 13. Nc3 {[%eval -1.23/25]} Qh4 {[%eval
-1.32/27]} 14. g3 {[%eval -1.25/25]} Bxg3 {[%eval -1.16/27]} 15. Qd2 {[%eval
-1.27/27]} Qg5 {[%eval 1.63/23]} 16. Nxe4 {[%eval 1.68/25]} Bxh2+ {[%eval
1.64/22]} 17. Kxh2 {[%eval 1.69/22]} Qh4+ {[%eval 1.63/24]} 18. Kg1 {[%eval
1.64/23]} Qxe4 {[%eval 1.67/19]} 19. Qf2 {[%eval 1.43/21]} f6 {[%eval 1.52/21]}
20. Qg3 {[%eval 1.01/22]} Qe7 {[%eval 1.48/21]} 21. Bd2 {[%eval 1.50/23]} Kf7
{[%eval 2.55/19]} 22. e4 {[%eval 2.48/20]} Qxe4 {[%eval 2.18/21]} 23. Qxc7+
{[%eval 2.50/22]} Qe7 {[%eval 2.65/24]} 24. Qxe7+ {[%eval 1.68/18]} Kxe7
{[%eval 1.73/21]} 25. Rac1 {[%eval 1.37/21]} Kd7 {[%eval 1.60/20]} 26. Bf4
{[%eval 1.06/21]} Rac8 {[%eval 1.18/21]} 27. d5 {[%eval 1.24/22]} g5 {[%eval
2.01/21]} 28. Rxc8 {[%eval 2.05/20]} Rxc8 {[%eval 2.15/21]} 29. Bg3 {[%eval
1.10/26]} Rf8 {[%eval 2.45/21]} 30. Rf5 {[%eval 2.54/20]} h5 {[%eval 2.60/21]}
31. Be5 {[%eval 2.49/23]} Ke7 {[%eval 2.95/24]} 32. Bc3 {[%eval 2.89/21]} h4
{[%eval 9.96/13]} 33. Bb4+ {[%eval 8.77/22]} Kf7 {[%eval 10.39/24]} 34. Bxf8
{[%eval 10.97/22]} Kg6 {[%eval 50.80/22]} 35. d6 {[%eval 46.22/21]} (35. Rxg5+)
35... Kxf5 {[%eval 50.33/21]} 36. d7 {[%eval 48.47/19]} h3 {[%eval 53.13/22]}
37. d8=Q {[%eval 59.17/22]} g4 {[%eval 327.67/31]} 38. Qd7+ {[%eval 56.46/22]}
(38. Qd5+ Kg6 39. Kh2 g3+ 40. Kxg3 h2 41. Kg4 Kh7 42. Qxb7+ Kg6 43. Qg7#) 38...
Kg5 {[%eval 327.67/29]} 39. Qd5+ {[%eval 327.67/38]} Kh4 {[%eval 327.67/37]}
40. Bd6 {[%eval 327.67/117]} b6 {[%eval 327.67/127]} 41. Qd2 {[%eval
327.67/32]} Kh5 {[%eval 327.67/32]} 42. Kh2 {[%eval 327.67/27]} f5 {[%eval
327.67/42]} 43. Qd5 {[%eval 327.67/122]} Kg6 {[%eval 327.67/85]} 44. Be7
{[%eval 327.67/28]} g3+ {[%eval 327.67/54]} 45. Kxg3 {[%eval 327.67/88]} f4+
{[%eval 327.67/112]} 46. Kxh3 {[%eval 327.67/125]} 1-0

