[Event "IC"]
[Site "TSM Mechelen"]
[Date "2017.03.12"]
[Round "9"]
[White "Ruben De Smet"]
[Black "Axel"]
[Result "*"]
[ECO "D43"]
[WhiteElo ""]
[BlackElo ""]
[TimeControl ""]
[Time ""]
[PlyCount "50"]
[EventDate ""]
[Annotator ""]

1. d4 1... d5 2. c4 2... c6 3. Nf3 3... Nf6 4. Nc3 4... e6 5. Bf4 5... dxc4 6.
e3 6... b5 7. Bxb8 $2 7... Rxb8 8. Ne5 8... Bd7 9. Qf3 9... Qc7 10. Be2 10...
Be7 11. O-O 11... O-O 12. Ne4 12... Nd5 13. Qh5 13... Be8 14. Qh3 14... f5 15.
Ng3 15... Bd6 16. f4 $6 16... Nxe3 17. Rf3 17... Nd5 18. Nh5 18... Bxh5 19.
Qxh5 19... Nf6 20. Qh4 20... Ne4 21. Rh3 21... h6 22. Qh5 22... c5 23. Qg6
23... Rf6 24. Qh5 24... cxd4 25. Nf3 25... Bxf4 {[%eval -10.91/24]} 0-1

